extract niche size — extract_niche_size • nichetools
…
    Value

    if pkg is set to "nicheROVER" then a tibble containing three rows, sample_name, id, and niche_size is returned.

    See also

    nicheROVER::niche.size(), nicheROVER::niw.post(),
SIBER::siberEllipses(), and SIBER::createSiberObject()

    Examples

extract_niche_size(data = niw_fish_post)
#> # A tibble: 4,000 × 3
#>    sample_name id    niche_size
#>    <chr>       <chr>      <dbl>
#>  1 ARCS        1           13.6
#>  2 ARCS        2           14.8
#>  3 ARCS        3           13.4
#>  4 ARCS        4           13.6
#>  5 ARCS        5           13.7
#>  6 ARCS        6           13.2
#>  7 ARCS        7           18.3
#>  8 ARCS        8           13.9
#>  9 ARCS        9           14.3
#> 10 ARCS        10          14.3
#> # ℹ 3,990 more rows
…
