extract \(\mu\) — extract_mu • nichetools
…
The tibble will contain five columns in the following order, metric,
sample_name, sample_number, and the names of the isotope
columns supplied to niw.post() or  siberMVN() (e.g., d13c and  d15n ).

    See also

    nicheROVER::niw.post() and SIBER::siberMVN()

    Examples

extract_mu(
data = niw_fish_post
)
#> # A tibble: 8,000 × 5
#>    metric sample_name sample_number isotope mu_est
#>    <chr>  <chr>               <int> <chr>    <dbl>
#>  1 mu     ARCS                    1 d13c     -23.8
#>  2 mu     ARCS                    1 d15n      12.6
#>  3 mu     ARCS                    2 d13c     -23.7
#>  4 mu     ARCS                    2 d15n      12.6
#>  5 mu     ARCS                    3 d13c     -24.2
#>  6 mu     ARCS                    3 d15n      12.4
#>  7 mu     ARCS                    4 d13c     -24.1
#>  8 mu     ARCS                    4 d15n      12.7
#>  9 mu     ARCS                    5 d13c     -23.9
#> 10 mu     ARCS                    5 d15n      12.6
#> # ℹ 7,990 more rows
extract_mu(
data = post_sam_siber,
pkg = "SIBER"
)
#> # A tibble: 48,000 × 5
#>    metric sample_name sample_number isotope  mu_est
#>    <chr>  <chr>               <int> <chr>     <dbl>
#>  1 mu     1.1                     1 d13c    -9.05  
#>  2 mu     1.1                     1 d15n     0.0622
#>  3 mu     1.1                     2 d13c    -8.91  
#>  4 mu     1.1                     2 d15n     0.429 
#>  5 mu     1.1                     3 d13c    -9.11  
#>  6 mu     1.1                     3 d15n     0.444 
#>  7 mu     1.1                     4 d13c    -9.00  
#>  8 mu     1.1                     4 d15n     0.0881
#>  9 mu     1.1                     5 d13c    -9.01  
#> 10 mu     1.1                     5 d15n    -0.0734
#> # ℹ 47,990 more rows
…
