extract Layman metrics — extract_layman • nichetools
…
# ---- extract posterior estimates of mu -----

mu_post <- extractPosteriorMeans(siber.example, post_sam_siber)

# ---- Bayesian estimates of layman metrics using SIBER ----

layman_b <- bayesianLayman(mu.post = mu_post)

# ---- use nichetools to extract Baysian estimats of Layman metrics ----

layman_be <- extract_layman(layman_b, community_df = c_names)

layman_be
#> # A tibble: 48,000 × 4
#>    community community_names metric   post_est
#>    <chr>     <fct>           <chr>       <dbl>
#>  1 1         dublin          dY_range     6.26
#>  2 1         dublin          dX_range     7.92
#>  3 1         dublin          TA          11.2 
#>  4 1         dublin          CD           4.12
#>  5 1         dublin          NND          4.67
#>  6 1         dublin          SDNND        3.69
#>  7 1         dublin          dY_range     6.27
#>  8 1         dublin          dX_range     8.22
#>  9 1         dublin          TA          13.5 
#> 10 1         dublin          CD           4.20
#> # ℹ 47,990 more rows
…
