Create ellipses based on Bayesian estimates of \(\mu\) and \(\Sigma\) — niche_ellipse • nichetools
…
A tibble containing, sample_name, sample_number, and the
isotopes that were used in the estimation of ellipse
(i.e.,  and d13c and d15n).

    See also

    nicheROVER::niw.post(), SIBER::siberMVN(), extract_mu(),
and extract_sigma()

    Examples

niche_ellipse(dat_mu = mu_est_long,
              dat_sigma = sigma_est_wide)
#> → Total time processing was 0.09 secs
#> # A tibble: 4,000 × 4
#>    sample_name sample_number  d13c  d15n
#>    <chr>               <dbl> <dbl> <dbl>
#>  1 ARCS                  126 -21.9  14.0
#>  2 ARCS                  126 -22.0  14.0
#>  3 ARCS                  126 -22.1  14.1
#>  4 ARCS                  126 -22.2  14.1
#>  5 ARCS                  126 -22.3  14.2
#>  6 ARCS                  126 -22.5  14.2
#>  7 ARCS                  126 -22.6  14.2
#>  8 ARCS                  126 -22.7  14.2
#>  9 ARCS                  126 -22.8  14.2
#> 10 ARCS                  126 -23.0  14.2
#> # ℹ 3,990 more rows
…
