Σ extract — sigma_extract • nichetools
…
    See also

    nicheROVER::niw.post()

    Examples

sigma_extract(
data = niw_fish_post
)
#> # A tibble: 8,000 × 6
#>    metric sample_name isotope sample_number  d15n  d13c
#>    <chr>  <chr>       <chr>   <chr>         <dbl> <dbl>
#>  1 sigma  ARCS        d15n    1             0.501 0.216
#>  2 sigma  ARCS        d13c    1             0.216 1.07 
#>  3 sigma  ARCS        d15n    2             0.577 0.206
#>  4 sigma  ARCS        d13c    2             0.206 0.844
#>  5 sigma  ARCS        d15n    3             0.725 0.449
#>  6 sigma  ARCS        d13c    3             0.449 1.48 
#>  7 sigma  ARCS        d15n    4             0.888 0.324
#>  8 sigma  ARCS        d13c    4             0.324 1.07 
#>  9 sigma  ARCS        d15n    5             0.681 0.266
#> 10 sigma  ARCS        d13c    5             0.266 0.970
#> # ℹ 7,990 more rows
…
